…
# Consumption

``` r
#Generate an 2010 Consumption data table including all related columns
Consumption2010<-data%>%
  select("TotalC2010","BiomassC2010","CoalC2010","ElecC2010","FossFuelC2010","GeoC2010","HydroC2010","NatGasC2010","LPGC2010","GDP2010")
Consumption2010
```

    ## # A tibble: 52 × 10
    ##    TotalC2010 BiomassC2010 CoalC2010 ElecC2010 FossFuelC2010 GeoC2010 HydroC2010
    ##         <dbl>        <dbl>     <dbl>     <dbl>         <dbl>    <dbl>      <dbl>
    ##  1    1931522       169088    718684    310023       1785688      138      84919
    ##  2     653221         4178     14548     21315        634777      153      13982
    ##  3    1383531        29289    457909    248506       1292346      339      64606
    ##  4    1120632        94865    293689    164439        909827      773      35697
    ##  5    7760629       280124     54972    882107       5741492   124981     326152
    ##  6    1513547        28210    382623    180555       1370758      721      15398
    ##  7     764970        35716     28711    103697        562060       20       3811
    ##  8     250212         6901     30253     39599        171414      414          0
    ##  9    4282673       246789    637416    788887       3491560     9516       1731
    ## 10    3100144       204742    767906    479971       2324200      300      32407
    ## # … with 42 more rows, and 3 more variables: NatGasC2010 <dbl>, LPGC2010 <dbl>,
    ## #   GDP2010 <dbl>

``` r
#Generate an 2011 Consumption data table including all related columns
Consumption2011<-data%>%
  select("TotalC2011","BiomassC2011","CoalC2011","ElecC2011","FossFuelC2011","GeoC2011","HydroC2011","NatGasC2011","LPGC2011","GDP2011")
Consumption2011
```

    ## # A tibble: 52 × 10
    ##    TotalC2011 BiomassC2011 CoalC2011 ElecC2011 FossFuelC2011 GeoC2011 HydroC2011
    ##         <dbl>        <dbl>     <dbl>     <dbl>         <dbl>    <dbl>      <dbl>
    ##  1    1905207       179611    651032    303652       1783839      135      86313
    ##  2     653637         4247     15481     21562        635981      214      13066
    ##  3    1424944        28565    459909    255708       1253992      345      89135
    ##  4    1122544        97160    306119    163530        932878      750      28738
    ##  5    7777115       282581     55264    893745       5550201   124092     413488
    ##  6    1470445        30883    368871    182400       1304903      741      20235
    ##  7     739130        33958      6081    101879        557282       19       5513
    ##  8     272568         6781     17881     39181        201518      401          0
    ##  9    4141711       245557    552730    768009       3357837     9799       1769
    ## 10    2982837       210583    634756    465298       2142535      291      26282
    ## # … with 42 more rows, and 3 more variables: NatGasC2011 <dbl>, LPGC2011 <dbl>,
    ## #   GDP2011 <dbl>

``` r
#Generate an 2012 Consumption data table including all related columns
Consumption2012<-data%>%
  select("TotalC2012","BiomassC2012","CoalC2012","ElecC2012","FossFuelC2012","GeoC2012","HydroC2012","NatGasC2012","LPGC2012","GDP2012")
Consumption2012
```

    ## # A tibble: 52 × 10
    ##    TotalC2012 BiomassC2012 CoalC2012 ElecC2012 FossFuelC2012 GeoC2012 HydroC2012
    ##         <dbl>        <dbl>     <dbl>     <dbl>         <dbl>    <dbl>      <dbl>
    ##  1    1879716       181878    547004    294055       1740315      141      70754
    ##  2     649341         4032     15521     21893        629768      186      14988
    ##  3    1395839        27267    420570    256116       1248032      345      63918
    ##  4    1067642        96248    296732    159885        918078      808      20921
    ##  5    7564063       280963     43832    885544       5687343   121269     255384
    ##  6    1440781        30680    370085    183174       1282352      759      14247
    ##  7     725019        32800      9290    100628        544358       21       2970
    ##  8     273728         5972     17384     39304        221203      430          0
    ##  9    4029903       244646    482984    752941       3327632    10056       1432
    ## 10    2767491       207725    435546    446900       1946907      315      21281
    ## # … with 42 more rows, and 3 more variables: NatGasC2012 <dbl>, LPGC2012 <dbl>,
    ## #   GDP2012 <dbl>

``` r
#Generate an 2013 Consumption data table including all related columns
Consumption2013<-data%>%
  select("TotalC2013","BiomassC2013","CoalC2013","ElecC2013","FossFuelC2013","GeoC2013","HydroC2013","NatGasC2013","LPGC2013","GDP2013")
Consumption2013
```

    ## # A tibble: 52 × 10
    ##    TotalC2013 BiomassC2013 CoalC2013 ElecC2013 FossFuelC2013 GeoC2013 HydroC2013
    ##         <dbl>        <dbl>     <dbl>     <dbl>         <dbl>    <dbl>      <dbl>
    ##  1    1919365       194432    565051    299751       1689491      141     123071
    ##  2     621107         5168     14819     21387        600660      186      13696
    ##  3    1414383        26492    454865    258159       1289119      345      56432
    ##  4    1096438        95356    327099    159283        936796      808      25329
    ##  5    7665241       294412     38151    891666       5755210   119556     226643
    ##  6    1470844        35382    363532    182343       1303825      759      11572
    ##  7     754901        34153      7679    101761        560141       21       3835
    ##  8     273716         5977     18254     38719        213411      430          0
    ##  9    4076406       253961    505155    757189       3273949    10056       2425
    ## 10    2782782       233509    426184    445257       1928374      315      35431
    ## # … with 42 more rows, and 3 more variables: NatGasC2013 <dbl>, LPGC2013 <dbl>,
    ## #   GDP2013 <dbl>

``` r
#Generate an 2014 Consumption data table including all related columns
Consumption2014<-data%>%
  select("TotalC2014","BiomassC2014","CoalC2014","ElecC2014","FossFuelC2014","GeoC2014","HydroC2014","NatGasC2014","LPGC2014","GDP2014")
Consumption2014
```

    ## # A tibble: 52 × 10
    ##    TotalC2014 BiomassC2014 CoalC2014 ElecC2014 FossFuelC2014 GeoC2014 HydroC2014
    ##         <dbl>        <dbl>     <dbl>     <dbl>         <dbl>    <dbl>      <dbl>
    ##  1    1958221       186649    575912    308765       1724891      141      90030
    ##  2     603119         5476     18225     21034        581369      186      14633
    ##  3    1422590        31481    447849    260328       1256577      345      58185
    ##  4    1114409        95963    339214    160638        939788      808      25104
    ##  5    7620082       298473     39486    895939       5702418   117226     157213
    ##  6    1477177        36073    350526    182189       1313834      759      16831
    ##  7     750019        36011      9097    100157        559695       21       4127
    ##  8     274013         6249     10238     38687        213655      430          0
    ##  9    4121680       250043    557882    771379       3350291    10056       2010
    ## 10    2850990       252985    482657    463315       1985059      315      29142
    ## # … with 42 more rows, and 3 more variables: NatGasC2014 <dbl>, LPGC2014 <dbl>,
    ## #   GDP2014 <dbl>
…
# Production

``` r
#Generate an 2010 Production data table including all related columns
Production2010<-data%>%
  select("TotalP2010","CoalC2010","GeoP2010","HydroP2010","NatGasC2010","LPGC2010","GDP2010")
Production2010
```

    ## # A tibble: 52 × 7
    ##    TotalP2010 CoalC2010 GeoP2010 HydroP2010 NatGasC2010 LPGC2010  GDP2010
    ##         <dbl>     <dbl>    <dbl>      <dbl>       <dbl>    <dbl>    <dbl>
    ##  1    1419613    718684        0       8704      544405    13088  176221.
    ##  2    1738207     14548        0       1433      334978     1353   54220 
    ##  3     580948    457909        0       6622      336208     7838  247333 
    ##  4    1247709    293689        0       3659      274774    10016  104929.
    ##  5    2532205     54972    12600      33431     2325411    63022 1960935 
    ##  6    2561459    382623        0       1578      510877    16395  258148.
    ##  7     203188     28711        0        391      203814     9425  230357.
    ##  8       3575     30253        0          0       56087     5323   57674.
    ##  9     510201    637416        0        177     1180462    20915  729762.
    ## 10     561796    767906        0       3322      541691    22767  407999 
    ## # … with 42 more rows

``` r
#Generate an 2011 Production data table including all related columns
Production2011<-data%>%
  select("TotalP2011","CoalC2011","GeoP2011","HydroP2011","NatGasC2011","LPGC2011","GDP2011")
Production2011
```

    ## # A tibble: 52 × 7
    ##    TotalP2011 CoalC2011 GeoP2011 HydroP2011 NatGasC2011 LPGC2011  GDP2011
    ##         <dbl>     <dbl>    <dbl>      <dbl>       <dbl>    <dbl>    <dbl>
    ##  1    1400108    651032        0       8884      609288    10343  181923 
    ##  2    1641980     15481        0       1345      339819     1247   59318.
    ##  3     617956    459909        0       9174      293134     8759  255620.
    ##  4    1391190    306119        0       2958      288906     8992  109378.
    ##  5    2634789     55264    12552      42557     2196252    62639 2031348.
    ##  6    2750097    368871        0       2083      481614    16036  266796.
    ##  7     195792      6081        0        567      236016    10092  232271.
    ##  8       3976     17881        0          0       81710     4730   59763.
    ##  9     500907    552730        0        182     1235953    19205  735244.
    ## 10     549483    634756        0       2705      532310    18607  418916.
    ## # … with 42 more rows

``` r
#Generate an 2012 Production data table including all related columns
Production2012<-data%>%
  select("TotalP2012","CoalC2012","GeoP2012","HydroP2012","NatGasC2012","LPGC2012","GDP2012")
Production2012
```

    ## # A tibble: 52 × 7
    ##    TotalP2012 CoalC2012 GeoP2012 HydroP2012 NatGasC2012 LPGC2012  GDP2012
    ##         <dbl>     <dbl>    <dbl>      <dbl>       <dbl>    <dbl>    <dbl>
    ##  1    1433370    547004        0       7435      677380     8628  187283.
    ##  2    1563102     15521        0       1575      347228     1314   61614.
    ##  3     598039    420570        0       6717      339043     6522  266131.
    ##  4    1472778    296732        0       2198      300572     7733  111541 
    ##  5    2334863     43832    12519      26837     2456371    55405 2121602.
    ##  6    2921385    370085        0       1497      461056    15118  277647.
    ##  7     205073      9290        0        312      236260     8988  238322.
    ##  8       3530     17384        0          0      104421     4306   60774.
    ##  9     442188    482984        0        151     1348390    17524  764646.
    ## 10     555238    435546        0       2236      625008    20507  434978.
    ## # … with 42 more rows

``` r
#Generate an 2013 Production data table including all related columns
Production2013<-data%>%
  select("TotalP2013","CoalC2013","GeoP2013","HydroP2013","NatGasC2013","LPGC2013","GDP2013")
Production2013
```

    ## # A tibble: 52 × 7
    ##    TotalP2013 CoalC2013 GeoP2013 HydroP2013 NatGasC2013 LPGC2013  GDP2013
    ##         <dbl>     <dbl>    <dbl>      <dbl>       <dbl>    <dbl>    <dbl>
    ##  1    1463647    565051        0      12899      625869     9094  191605.
    ##  2    1513859     14819        0       1435      332963     1272   59891.
    ##  3     594994    454865        0       5915      340375     7576  271072.
    ##  4    1432074    327099        0       2655      286352     8864  116652.
    ##  5    2390424     38151    12307      23755     2483208    54438 2215232.
    ##  6    2838193    363532        0       1213      487445    17952  288809 
    ##  7     207118      7679        0        402      241509    10949  242417 
    ##  8       3818     18254        0          0      100106     4675   61424.
    ##  9     542570    505155        0        254     1245287    16807  797344.
    ## 10     581082    426184        0       3714      635287    17424  450934.
    ## # … with 42 more rows

``` r
#Generate an 2014 Production data table including all related columns
Production2014<-data%>%
  select("TotalP2014","CoalC2014","GeoP2014","HydroP2014","NatGasC2014","LPGC2014","GDP2014")
Production2014
```

    ## # A tibble: 52 × 7
    ##    TotalP2014 CoalC2014 GeoP2014 HydroP2014 NatGasC2014 LPGC2014  GDP2014
    ##         <dbl>     <dbl>    <dbl>      <dbl>       <dbl>    <dbl>    <dbl>
    ##  1    1353725    575912        0       9467      651532     8460  197534.
    ##  2    1475129     18225        0       1539      329585     1190   58067.
    ##  3     635050    447849        0       6118      315448     7373  281559.
    ##  4    1454325    339214        0       2640      274767     9145  121065.
    ##  5    2413494     39486    12102      16531     2417476    51472 2324996.
    ##  6    3041634    350526        0       1770      499668    16341  305367.
    ##  7     197271      9097        0        434      240614    10083  250764.
    ##  8       4189     10238        0          0      106854     4872   65485.
    ##  9     553738    557882        0        211     1246670    16502  835578.
    ## 10     597955    482657        0       3064      666771    19087  471880.
    ## # … with 42 more rows
…
# Earning

``` r
#Generate an 2010 Earning data table including all related columns
Earning2010<-data%>%
  select("TotalE2010","CoalE2010","ElecE2010","NatGasE2010","LPGE2010","GDP2010")
Earning2010
```

    ## # A tibble: 52 × 6
    ##    TotalE2010 CoalE2010 ElecE2010 NatGasE2010 LPGE2010  GDP2010
    ##         <dbl>     <dbl>     <dbl>       <dbl>    <dbl>    <dbl>
    ##  1     21630.    2136.      7833        3222.    317.   176221.
    ##  2      6474.      49.9      912.        479.     35.6   54220 
    ##  3     19373.     829.      7059.       2199.    220.   247333 
    ##  4     12269.     511.      3393.       1792.    224.   104929.
    ##  5    117090      161.     33382.      14914.   1670.  1960935 
    ##  6     16888.     610.      4786.       2574     365.   258148.
    ##  7     14245       99.1     5283.       1744.    270.   230357.
    ##  8      3584.     101.      1390.        524.    146.    57674.
    ##  9     59826.    2219.     24460.       7968.    606.   729762.
    ## 10     37232.    2994.     12410.       4546.    561.   407999 
    ## # … with 42 more rows

``` r
#Generate an 2011 Earning data table including all related columns
Earning2011<-data%>%
  select("TotalE2011","CoalE2011","ElecE2011","NatGasE2011","LPGE2011","GDP2011")
Earning2011
```

    ## # A tibble: 52 × 6
    ##    TotalE2011 CoalE2011 ElecE2011 NatGasE2011 LPGE2011  GDP2011
    ##         <dbl>     <dbl>     <dbl>       <dbl>    <dbl>    <dbl>
    ##  1     24448.    2010.      7846.       3123.    274.   181923 
    ##  2      8050.      59.6     1005.        545.     36.9   59318.
    ##  3     22629.     917.      7279.       2084.    280.   255620.
    ##  4     14179.     592.      3447.       1903.    240.   109378.
    ##  5    135098.     173.     33919.      14354.   1921   2031348.
    ##  6     19270.     637       4963.       2334.    412.   266796.
    ##  7     15498.      22.4     4882.       1789.    323.   232271.
    ##  8      3988.      61       1309.        708.    143.    59763.
    ##  9     67345.    1960.     23880.       7701.    605.   735244.
    ## 10     42316.    2400.     13108.       4165.    503.   418916.
    ## # … with 42 more rows

``` r
#Generate an 2012 Earning data table including all related columns
Earning2012<-data%>%
  select("TotalE2012","CoalE2012","ElecE2012","NatGasE2012","LPGE2012","GDP2012")
Earning2012
```

    ## # A tibble: 52 × 6
    ##    TotalE2012 CoalE2012 ElecE2012 NatGasE2012 LPGE2012  GDP2012
    ##         <dbl>     <dbl>     <dbl>       <dbl>    <dbl>    <dbl>
    ##  1     24193.    1809.      7666.       2596.     212   187283.
    ##  2      7884.      63       1035         514.      36    61614.
    ##  3     22872.     880.      7361        1802.     188.  266131.
    ##  4     13756.     673.      3456.       1496.     191   111541 
    ##  5    135932      134.     34852.      13010.    1492. 2121602.
    ##  6     19296.     689.      4988.       2065.     332.  277647.
    ##  7     15127.      33.3     4584.       1631.     281.  238322.
    ##  8      4040.      58.3     1266.        748.     130.   60774.
    ##  9     66380     1698.     23029.       6982.     466.  764646.
    ## 10     39837.    1530.     12275.       3830.     527.  434978.
    ## # … with 42 more rows

``` r
#Generate an 2013 Earning data table including all related columns
Earning2013<-data%>%
  select("TotalE2013","CoalE2013","ElecE2013","NatGasE2013","LPGE2013","GDP2013")
Earning2013
```

    ## # A tibble: 52 × 6
    ##    TotalE2013 CoalE2013 ElecE2013 NatGasE2013 LPGE2013  GDP2013
    ##         <dbl>     <dbl>     <dbl>       <dbl>    <dbl>    <dbl>
    ##  1     24127     1732.      7901.       3091.    222.   191605.
    ##  2      7282.      72.6     1005.        495.     33.2   59891.
    ##  3     22841.     947.      7669.       2026.    223.   271072.
    ##  4     14102.     789.      3687.       1679     218.   116652.
    ##  5    137051.     130.     37028.      14809.   1493.  2215232.
    ##  6     19671.     703.      5258.       2355.    424.   288809 
    ##  7     15364.      32.3     4669.       1922.    331.   242417 
    ##  8      3857.      58.4     1216.        702.    140.    61424.
    ##  9     66108.    1736.     22678.       6853.    448.   797344.
    ## 10     39938.    1372.     12648.       4418.    434.   450934.
    ## # … with 42 more rows

``` r
#Generate an 2014 Earning data table including all related columns
Earning2014<-data%>%
  select("TotalE2014","CoalE2014","ElecE2014","NatGasE2014","LPGE2014","GDP2014")
Earning2014
```

    ## # A tibble: 52 × 6
    ##    TotalE2014 CoalE2014 ElecE2014 NatGasE2014 LPGE2014  GDP2014
    ##         <dbl>     <dbl>     <dbl>       <dbl>    <dbl>    <dbl>
    ##  1     24146.    1677.      8363.       3521.    227.   197534.
    ##  2      6891.      88.8     1056.        481.     32.9   58067.
    ##  3     22610.     945.      7764.       2156.    223.   281559.
    ##  4     13885.     821.      3704.       1849.    236.   121065.
    ##  5    137720.     135.     39424.      16128.   1425.  2324996.
    ##  6     19994.     684.      5346.       2686.    419    305367.
    ##  7     15483.      38.8     5004        2162     330.   250764.
    ##  8      3848.      31.5     1239.        753.    154.    65485.
    ##  9     66414.    1858.     24339.       7468     481.   835578.
    ## 10     39728.    1521.     13614.       4963.    518.   471880.
    ## # … with 42 more rows
…
