…
# Coal Analysis-EDA

``` r
#Filter data for coalC
coalC<-data%>%
  select("StateCodes","State","Region","Division","Coast",`Great Lakes`,"CoalC2010","CoalC2011","CoalC2012","CoalC2013","CoalC2014")%>%
  pivot_longer(c("CoalC2010","CoalC2011","CoalC2012","CoalC2013","CoalC2014"), names_to = "Year", values_to = "CoalConsumption")
#Clean Year CoalC
coalC$Year<-gsub("CoalC","",as.character(coalC$Year))
#Display the outcome
coalC
```

    ## # A tibble: 255 × 8
    ##    StateCodes State   Region Division Coast `Great Lakes` Year  CoalConsumption
    ##    <chr>      <chr>    <dbl>    <dbl> <dbl>         <dbl> <chr>           <dbl>
    ##  1 AL         Alabama      3        6     1             0 2010           718684
    ##  2 AL         Alabama      3        6     1             0 2011           651032
    ##  3 AL         Alabama      3        6     1             0 2012           547004
    ##  4 AL         Alabama      3        6     1             0 2013           565051
    ##  5 AL         Alabama      3        6     1             0 2014           575912
    ##  6 AK         Alaska       4        9     1             0 2010            14548
    ##  7 AK         Alaska       4        9     1             0 2011            15481
    ##  8 AK         Alaska       4        9     1             0 2012            15521
    ##  9 AK         Alaska       4        9     1             0 2013            14819
    ## 10 AK         Alaska       4        9     1             0 2014            18225
    ## # … with 245 more rows

``` r
#Filter data for coalP
coalP<-data%>%
  select("StateCodes","CoalP2010","CoalP2011","CoalP2012","CoalP2013","CoalP2014")%>%
  pivot_longer(c("CoalP2010","CoalP2011","CoalP2012","CoalP2013","CoalP2014"), names_to = "Year", values_to = "CoalProduction")
#Clean Year coalP
coalP$Year<-gsub("CoalP","",as.character(coalP$Year))
#Display the outcome
coalP
```

    ## # A tibble: 255 × 3
    ##    StateCodes Year  CoalProduction
    ##    <chr>      <chr>          <dbl>
    ##  1 AL         2010          493094
    ##  2 AL         2011          468671
    ##  3 AL         2012          488084
    ##  4 AL         2013          469162
    ##  5 AL         2014          414366
    ##  6 AK         2010           33556
    ##  7 AK         2011           33524
    ##  8 AK         2012           31332
    ##  9 AK         2013           24917
    ## 10 AK         2014           22944
    ## # … with 245 more rows

``` r
#Filter data for coalE
coalE<-data%>%
  select("StateCodes","CoalE2010","CoalE2011","CoalE2012","CoalE2013","CoalE2014")%>%
  pivot_longer(c("CoalE2010","CoalE2011","CoalE2012","CoalE2013","CoalE2014"), names_to = "Year", values_to = "CoalEarning")
#Clean Year coalE
coalE$Year<-gsub("CoalE","",as.character(coalE$Year))
#Display the outcome
coalE
```

    ## # A tibble: 255 × 3
    ##    StateCodes Year  CoalEarning
    ##    <chr>      <chr>       <dbl>
    ##  1 AL         2010       2136. 
    ##  2 AL         2011       2010. 
    ##  3 AL         2012       1809. 
    ##  4 AL         2013       1732. 
    ##  5 AL         2014       1677. 
    ##  6 AK         2010         49.9
    ##  7 AK         2011         59.6
    ##  8 AK         2012         63  
    ##  9 AK         2013         72.6
    ## 10 AK         2014         88.8
    ## # … with 245 more rows

``` r
#Filter data for coalPrice
coalPrice<-data%>%
  select("StateCodes","CoalPrice2010","CoalPrice2011","CoalPrice2012","CoalPrice2013","CoalPrice2014")%>%
  pivot_longer(c("CoalPrice2010","CoalPrice2011","CoalPrice2012","CoalPrice2013","CoalPrice2014"), names_to = "Year", values_to = "CoalPrice")
#Clean Year coalPrice
coalPrice$Year<-gsub("CoalPrice","",as.character(coalPrice$Year))
#Display the outcome
coalPrice
```

    ## # A tibble: 255 × 3
    ##    StateCodes Year  CoalPrice
    ##    <chr>      <chr>     <dbl>
    ##  1 AL         2010       2.97
    ##  2 AL         2011       3.09
    ##  3 AL         2012       3.31
    ##  4 AL         2013       3.06
    ##  5 AL         2014       2.91
    ##  6 AK         2010       3.43
    ##  7 AK         2011       3.85
    ##  8 AK         2012       4.06
    ##  9 AK         2013       4.9 
    ## 10 AK         2014       4.87
    ## # … with 245 more rows

``` r
#Join four Tables into one
coal<-left_join(coalC,coalP,by=c('StateCodes','Year'))
coal<-left_join(coal,coalE,by=c('StateCodes','Year'))
coal<-left_join(coal,coalPrice,by=c('StateCodes','Year'))
coal<-coal%>%
  mutate(CumCoalConsumption=cumsum(CoalConsumption))%>%
  mutate(CumCoalProduction=cumsum(CoalProduction))%>%
  mutate(CumCoalEarning=cumsum(CoalEarning))%>%
  mutate(CumCoalPrice=cumsum(CoalPrice))
coal
```

    ## # A tibble: 255 × 15
    ##    StateCodes State   Region Division Coast `Great Lakes` Year  CoalConsumption
    ##    <chr>      <chr>    <dbl>    <dbl> <dbl>         <dbl> <chr>           <dbl>
    ##  1 AL         Alabama      3        6     1             0 2010           718684
    ##  2 AL         Alabama      3        6     1             0 2011           651032
    ##  3 AL         Alabama      3        6     1             0 2012           547004
    ##  4 AL         Alabama      3        6     1             0 2013           565051
    ##  5 AL         Alabama      3        6     1             0 2014           575912
    ##  6 AK         Alaska       4        9     1             0 2010            14548
    ##  7 AK         Alaska       4        9     1             0 2011            15481
    ##  8 AK         Alaska       4        9     1             0 2012            15521
    ##  9 AK         Alaska       4        9     1             0 2013            14819
    ## 10 AK         Alaska       4        9     1             0 2014            18225
    ## # … with 245 more rows, and 7 more variables: CoalProduction <dbl>,
    ## #   CoalEarning <dbl>, CoalPrice <dbl>, CumCoalConsumption <dbl>,
    ## #   CumCoalProduction <dbl>, CumCoalEarning <dbl>, CumCoalPrice <dbl>
…
