…
# Geo Analysis-EDA

``` r
#Filter data for GeoC
GeoC<-data%>%
  select("StateCodes","State","Region","Division","Coast",`Great Lakes`,"GeoC2010","GeoC2011","GeoC2012","GeoC2013","GeoC2014")%>%
  pivot_longer(c("GeoC2010","GeoC2011","GeoC2012","GeoC2013","GeoC2014"), names_to = "Year", values_to = "GeoConsumption")
#Clean Year GeoC
GeoC$Year<-gsub("GeoC","",as.character(GeoC$Year))
#Display the outcome
GeoC
```

    ## # A tibble: 255 × 8
    ##    StateCodes State   Region Division Coast `Great Lakes` Year  GeoConsumption
    ##    <chr>      <chr>    <dbl>    <dbl> <dbl>         <dbl> <chr>          <dbl>
    ##  1 AL         Alabama      3        6     1             0 2010             138
    ##  2 AL         Alabama      3        6     1             0 2011             135
    ##  3 AL         Alabama      3        6     1             0 2012             141
    ##  4 AL         Alabama      3        6     1             0 2013             141
    ##  5 AL         Alabama      3        6     1             0 2014             141
    ##  6 AK         Alaska       4        9     1             0 2010             153
    ##  7 AK         Alaska       4        9     1             0 2011             214
    ##  8 AK         Alaska       4        9     1             0 2012             186
    ##  9 AK         Alaska       4        9     1             0 2013             186
    ## 10 AK         Alaska       4        9     1             0 2014             186
    ## # … with 245 more rows

``` r
#JAdd cumlative column
Geo<-GeoC%>%
  mutate(CumGeoConsumption=cumsum(GeoConsumption))
Geo
```

    ## # A tibble: 255 × 9
    ##    StateCodes State   Region Division Coast `Great Lakes` Year  GeoConsumption
    ##    <chr>      <chr>    <dbl>    <dbl> <dbl>         <dbl> <chr>          <dbl>
    ##  1 AL         Alabama      3        6     1             0 2010             138
    ##  2 AL         Alabama      3        6     1             0 2011             135
    ##  3 AL         Alabama      3        6     1             0 2012             141
    ##  4 AL         Alabama      3        6     1             0 2013             141
    ##  5 AL         Alabama      3        6     1             0 2014             141
    ##  6 AK         Alaska       4        9     1             0 2010             153
    ##  7 AK         Alaska       4        9     1             0 2011             214
    ##  8 AK         Alaska       4        9     1             0 2012             186
    ##  9 AK         Alaska       4        9     1             0 2013             186
    ## 10 AK         Alaska       4        9     1             0 2014             186
    ## # … with 245 more rows, and 1 more variable: CumGeoConsumption <dbl>
…
